{
  "kind": "collectionType",
  "collectionName": "votes",
  "info": {
    "name": "vote"
  },
  "options": {
    "increments": true,
    "timestamps": true
  },
  "attributes": {
    "user": {
      "plugin": "users-permissions",
      "model": "user",
      "via": "votes"
    },
    "story": {
      "model": "story",
      "via": "votes"
    }
  }
}
