<?xml version="1.0" encoding="UTF-8" standalone="no"?>
<!-- Created with Inkscape (http://www.inkscape.org/) -->

<svg
   xmlns:osb="http://www.openswatchbook.org/uri/2009/osb"
   xmlns:dc="http://purl.org/dc/elements/1.1/"
   xmlns:cc="http://creativecommons.org/ns#"
   xmlns:rdf="http://www.w3.org/1999/02/22-rdf-syntax-ns#"
   xmlns:svg="http://www.w3.org/2000/svg"
   xmlns="http://www.w3.org/2000/svg"
   xmlns:sodipodi="http://sodipodi.sourceforge.net/DTD/sodipodi-0.dtd"
   xmlns:inkscape="http://www.inkscape.org/namespaces/inkscape"
   width="125.39747mm"
   height="129.32826mm"
   viewBox="0 0 125.39747 129.32826"
   version="1.1"
   id="svg8"
   inkscape:export-filename="/home/reppard/work/src/gitlab.com/reppard/link-aggregator/web/img/logo.png"
   inkscape:export-xdpi="96"
   inkscape:export-ydpi="96"
   inkscape:version="0.92.5 (2060ec1f9f, 2020-04-08)"
   sodipodi:docname="logo.svg">
  <defs
     id="defs2">
    <inkscape:path-effect
       effect="spiro"
       id="path-effect6215"
       is_visible="true" />
    <linearGradient
       id="linearGradient6145"
       osb:paint="solid">
      <stop
         style="stop-color:#7c0000;stop-opacity:1;"
         offset="0"
         id="stop6143" />
    </linearGradient>
    <inkscape:path-effect
       effect="spiro"
       id="path-effect4569"
       is_visible="true" />
    <inkscape:path-effect
       effect="spiro"
       id="path-effect4565"
       is_visible="true" />
    <inkscape:path-effect
       effect="powerstroke"
       id="path-effect4534"
       is_visible="true"
       offset_points="0,0.13229166"
       sort_points="true"
       interpolator_type="CubicBezierJohan"
       interpolator_beta="0.2"
       start_linecap_type="zerowidth"
       linejoin_type="extrp_arc"
       miter_limit="4"
       end_linecap_type="zerowidth" />
    <inkscape:path-effect
       effect="skeletal"
       id="path-effect4530"
       is_visible="true"
       pattern="M 0,5 C 0,2.24 2.24,0 5,0 7.76,0 10,2.24 10,5 10,7.76 7.76,10 5,10 2.24,10 0,7.76 0,5 Z"
       copytype="single_stretched"
       prop_scale="1"
       scale_y_rel="false"
       spacing="0"
       normal_offset="0"
       tang_offset="0"
       prop_units="false"
       vertical_pattern="false"
       fuse_tolerance="0" />
    <inkscape:path-effect
       effect="spiro"
       id="path-effect6215-6"
       is_visible="true" />
    <inkscape:path-effect
       effect="spiro"
       id="path-effect6215-6-5"
       is_visible="true" />
    <inkscape:path-effect
       effect="spiro"
       id="path-effect6215-5"
       is_visible="true" />
    <inkscape:path-effect
       effect="spiro"
       id="path-effect6215-5-2"
       is_visible="true" />
    <filter
       style="color-interpolation-filters:sRGB"
       inkscape:label="Drop Shadow"
       id="filter1209">
      <feFlood
         flood-opacity="0.498039"
         flood-color="rgb(0,0,0)"
         result="flood"
         id="feFlood1199" />
      <feComposite
         in="flood"
         in2="SourceGraphic"
         operator="out"
         result="composite1"
         id="feComposite1201" />
      <feGaussianBlur
         in="composite1"
         stdDeviation="6"
         result="blur"
         id="feGaussianBlur1203" />
      <feOffset
         dx="2"
         dy="2"
         result="offset"
         id="feOffset1205" />
      <feComposite
         in="offset"
         in2="SourceGraphic"
         operator="atop"
         result="fbSourceGraphic"
         id="feComposite1207" />
      <feColorMatrix
         result="fbSourceGraphicAlpha"
         in="fbSourceGraphic"
         values="0 0 0 -1 0 0 0 0 -1 0 0 0 0 -1 0 0 0 0 1 0"
         id="feColorMatrix1111" />
      <feFlood
         id="feFlood1113"
         flood-opacity="0.498039"
         flood-color="rgb(0,0,0)"
         result="flood"
         in="fbSourceGraphic" />
      <feComposite
         in2="fbSourceGraphic"
         id="feComposite1115"
         in="flood"
         operator="out"
         result="composite1" />
      <feGaussianBlur
         id="feGaussianBlur1117"
         in="composite1"
         stdDeviation="6"
         result="blur" />
      <feOffset
         id="feOffset1119"
         dx="6"
         dy="6"
         result="offset" />
      <feComposite
         in2="fbSourceGraphic"
         id="feComposite1121"
         in="offset"
         operator="atop"
         result="composite2" />
    </filter>
    <filter
       style="color-interpolation-filters:sRGB"
       inkscape:label="Drop Shadow"
       id="filter1221">
      <feFlood
         flood-opacity="0.498039"
         flood-color="rgb(0,0,0)"
         result="flood"
         id="feFlood1211" />
      <feComposite
         in="flood"
         in2="SourceGraphic"
         operator="out"
         result="composite1"
         id="feComposite1213" />
      <feGaussianBlur
         in="composite1"
         stdDeviation="6"
         result="blur"
         id="feGaussianBlur1215" />
      <feOffset
         dx="2"
         dy="2"
         result="offset"
         id="feOffset1217" />
      <feComposite
         in="offset"
         in2="SourceGraphic"
         operator="atop"
         result="fbSourceGraphic"
         id="feComposite1219" />
      <feColorMatrix
         result="fbSourceGraphicAlpha"
         in="fbSourceGraphic"
         values="0 0 0 -1 0 0 0 0 -1 0 0 0 0 -1 0 0 0 0 1 0"
         id="feColorMatrix1065" />
      <feFlood
         id="feFlood1067"
         flood-opacity="0.498039"
         flood-color="rgb(0,0,0)"
         result="flood"
         in="fbSourceGraphic" />
      <feComposite
         in2="fbSourceGraphic"
         id="feComposite1069"
         in="flood"
         operator="out"
         result="composite1" />
      <feGaussianBlur
         id="feGaussianBlur1071"
         in="composite1"
         stdDeviation="6"
         result="blur" />
      <feOffset
         id="feOffset1073"
         dx="6"
         dy="6"
         result="offset" />
      <feComposite
         in2="fbSourceGraphic"
         id="feComposite1075"
         in="offset"
         operator="atop"
         result="composite2" />
    </filter>
    <filter
       style="color-interpolation-filters:sRGB"
       inkscape:label="Drop Shadow"
       id="filter1233">
      <feFlood
         flood-opacity="0.498039"
         flood-color="rgb(0,0,0)"
         result="flood"
         id="feFlood1223" />
      <feComposite
         in="flood"
         in2="SourceGraphic"
         operator="out"
         result="composite1"
         id="feComposite1225" />
      <feGaussianBlur
         in="composite1"
         stdDeviation="6"
         result="blur"
         id="feGaussianBlur1227" />
      <feOffset
         dx="2"
         dy="2"
         result="offset"
         id="feOffset1229" />
      <feComposite
         in="offset"
         in2="SourceGraphic"
         operator="atop"
         result="composite2"
         id="feComposite1231" />
    </filter>
    <filter
       style="color-interpolation-filters:sRGB"
       inkscape:label="Drop Shadow"
       id="filter1245">
      <feFlood
         flood-opacity="0.498039"
         flood-color="rgb(0,0,0)"
         result="flood"
         id="feFlood1235" />
      <feComposite
         in="flood"
         in2="SourceGraphic"
         operator="out"
         result="composite1"
         id="feComposite1237" />
      <feGaussianBlur
         in="composite1"
         stdDeviation="6"
         result="blur"
         id="feGaussianBlur1239" />
      <feOffset
         dx="2"
         dy="2"
         result="offset"
         id="feOffset1241" />
      <feComposite
         in="offset"
         in2="SourceGraphic"
         operator="atop"
         result="composite2"
         id="feComposite1243" />
    </filter>
    <filter
       style="color-interpolation-filters:sRGB"
       inkscape:label="Drop Shadow"
       id="filter1269">
      <feFlood
         flood-opacity="0.498039"
         flood-color="rgb(0,0,0)"
         result="flood"
         id="feFlood1259" />
      <feComposite
         in="flood"
         in2="SourceGraphic"
         operator="out"
         result="composite1"
         id="feComposite1261" />
      <feGaussianBlur
         in="composite1"
         stdDeviation="6"
         result="blur"
         id="feGaussianBlur1263" />
      <feOffset
         dx="2"
         dy="2"
         result="offset"
         id="feOffset1265" />
      <feComposite
         in="offset"
         in2="SourceGraphic"
         operator="atop"
         result="fbSourceGraphic"
         id="feComposite1267" />
      <feColorMatrix
         result="fbSourceGraphicAlpha"
         in="fbSourceGraphic"
         values="0 0 0 -1 0 0 0 0 -1 0 0 0 0 -1 0 0 0 0 1 0"
         id="feColorMatrix1005" />
      <feFlood
         id="feFlood1007"
         flood-opacity="0.498039"
         flood-color="rgb(0,0,0)"
         result="flood"
         in="fbSourceGraphic" />
      <feComposite
         in2="fbSourceGraphic"
         id="feComposite1009"
         in="flood"
         operator="out"
         result="composite1" />
      <feGaussianBlur
         id="feGaussianBlur1011"
         in="composite1"
         stdDeviation="6"
         result="blur" />
      <feOffset
         id="feOffset1013"
         dx="6"
         dy="6"
         result="offset" />
      <feComposite
         in2="fbSourceGraphic"
         id="feComposite1015"
         in="offset"
         operator="atop"
         result="composite2" />
    </filter>
    <filter
       style="color-interpolation-filters:sRGB"
       inkscape:label="Drop Shadow"
       id="filter1281">
      <feFlood
         flood-opacity="0.498039"
         flood-color="rgb(0,0,0)"
         result="flood"
         id="feFlood1271" />
      <feComposite
         in="flood"
         in2="SourceGraphic"
         operator="out"
         result="composite1"
         id="feComposite1273" />
      <feGaussianBlur
         in="composite1"
         stdDeviation="6"
         result="blur"
         id="feGaussianBlur1275" />
      <feOffset
         dx="2"
         dy="2"
         result="offset"
         id="feOffset1277" />
      <feComposite
         in="offset"
         in2="SourceGraphic"
         operator="atop"
         result="fbSourceGraphic"
         id="feComposite1279" />
      <feColorMatrix
         result="fbSourceGraphicAlpha"
         in="fbSourceGraphic"
         values="0 0 0 -1 0 0 0 0 -1 0 0 0 0 -1 0 0 0 0 1 0"
         id="feColorMatrix1017" />
      <feFlood
         id="feFlood1019"
         flood-opacity="0.498039"
         flood-color="rgb(0,0,0)"
         result="flood"
         in="fbSourceGraphic" />
      <feComposite
         in2="fbSourceGraphic"
         id="feComposite1021"
         in="flood"
         operator="out"
         result="composite1" />
      <feGaussianBlur
         id="feGaussianBlur1023"
         in="composite1"
         stdDeviation="6"
         result="blur" />
      <feOffset
         id="feOffset1025"
         dx="6"
         dy="6"
         result="offset" />
      <feComposite
         in2="fbSourceGraphic"
         id="feComposite1027"
         in="offset"
         operator="atop"
         result="composite2" />
    </filter>
    <filter
       style="color-interpolation-filters:sRGB"
       inkscape:label="Drop Shadow"
       id="filter1293">
      <feFlood
         flood-opacity="0.498039"
         flood-color="rgb(0,0,0)"
         result="flood"
         id="feFlood1283" />
      <feComposite
         in="flood"
         in2="SourceGraphic"
         operator="out"
         result="composite1"
         id="feComposite1285" />
      <feGaussianBlur
         in="composite1"
         stdDeviation="6"
         result="blur"
         id="feGaussianBlur1287" />
      <feOffset
         dx="2"
         dy="2"
         result="offset"
         id="feOffset1289" />
      <feComposite
         in="offset"
         in2="SourceGraphic"
         operator="atop"
         result="fbSourceGraphic"
         id="feComposite1291" />
      <feColorMatrix
         result="fbSourceGraphicAlpha"
         in="fbSourceGraphic"
         values="0 0 0 -1 0 0 0 0 -1 0 0 0 0 -1 0 0 0 0 1 0"
         id="feColorMatrix1029" />
      <feFlood
         id="feFlood1031"
         flood-opacity="0.498039"
         flood-color="rgb(0,0,0)"
         result="flood"
         in="fbSourceGraphic" />
      <feComposite
         in2="fbSourceGraphic"
         id="feComposite1033"
         in="flood"
         operator="out"
         result="composite1" />
      <feGaussianBlur
         id="feGaussianBlur1035"
         in="composite1"
         stdDeviation="6"
         result="blur" />
      <feOffset
         id="feOffset1037"
         dx="6"
         dy="6"
         result="offset" />
      <feComposite
         in2="fbSourceGraphic"
         id="feComposite1039"
         in="offset"
         operator="atop"
         result="composite2" />
    </filter>
  </defs>
  <sodipodi:namedview
     id="base"
     pagecolor="#ffffff"
     bordercolor="#666666"
     borderopacity="1.0"
     inkscape:pageopacity="0.0"
     inkscape:pageshadow="2"
     inkscape:zoom="1.4142136"
     inkscape:cx="310.60717"
     inkscape:cy="283.13465"
     inkscape:document-units="mm"
     inkscape:current-layer="layer1"
     showgrid="false"
     inkscape:window-width="1920"
     inkscape:window-height="1016"
     inkscape:window-x="0"
     inkscape:window-y="27"
     inkscape:window-maximized="1">
    <inkscape:grid
       type="xygrid"
       id="grid16"
       originx="-40.495301"
       originy="-90.383243" />
  </sodipodi:namedview>
  <metadata
     id="metadata5">
    <rdf:RDF>
      <cc:Work
         rdf:about="">
        <dc:format>image/svg+xml</dc:format>
        <dc:type
           rdf:resource="http://purl.org/dc/dcmitype/StillImage" />
        <dc:title />
      </cc:Work>
    </rdf:RDF>
  </metadata>
  <g
     inkscape:label="Layer 1"
     inkscape:groupmode="layer"
     id="layer1"
     transform="translate(-40.495301,-77.288513)">
    <path
       style="fill:#ff0000;fill-opacity:1;stroke:none;stroke-width:0.26458332px;stroke-linecap:butt;stroke-linejoin:miter;stroke-opacity:1;filter:url(#filter1221)"
       d="m 142.18739,86.124342 c 7.46273,-3.79356 16.51577,-4.321119 24.36862,-1.420065 7.85286,2.901054 14.38861,9.187528 17.59269,16.921693 1.92178,4.63888 2.66939,9.82975 1.66166,14.74879 -1.00773,4.91903 -3.85673,9.52347 -8.07613,12.24544 -3.92684,2.53323 -8.90157,3.32328 -13.45847,2.28795 -4.55691,-1.03533 -8.65707,-3.84826 -11.39759,-7.63334 -2.18451,-3.01715 -3.52011,-6.61576 -4.01253,-10.30802 -0.49242,-3.69226 -0.15582,-7.47473 0.80529,-11.07355 0.54261,-2.031755 1.28774,-4.044794 1.33635,-6.147195 0.0555,-2.402438 -0.85047,-4.813763 -2.47429,-6.585204 -1.62382,-1.771441 -3.94741,-2.883326 -6.3456,-3.036499 z"
       id="path6213-6-9"
       inkscape:connector-curvature="0"
       inkscape:path-effect="#path-effect6215-5-2"
       inkscape:original-d="m 142.18739,86.124342 c 0,0 27.97447,10.334157 41.96131,15.501628 13.98684,5.16748 -4.27605,17.99589 -6.41447,26.99423 -2.13842,8.99833 -16.57044,-3.56386 -24.85606,-5.34539 -8.28562,-1.78154 -2.13789,-14.25464 -3.20724,-21.38157 -1.06934,-7.126918 0.89117,-4.098394 1.33635,-6.147195 0.44519,-2.048801 -8.81989,-9.621703 -8.81989,-9.621703 z"
       transform="matrix(-0.37114346,0.31095004,0.31095004,0.37114346,166.26531,77.03361)" />
    <path
       style="fill:#ff0000;fill-opacity:1;stroke:none;stroke-width:0.26458332px;stroke-linecap:butt;stroke-linejoin:miter;stroke-opacity:1;filter:url(#filter1209)"
       d="m 142.18739,86.124342 c 7.46273,-3.79356 16.51577,-4.321119 24.36862,-1.420065 7.85286,2.901054 14.38861,9.187528 17.59269,16.921693 1.92178,4.63888 2.66939,9.82975 1.66166,14.74879 -1.00773,4.91903 -3.85673,9.52347 -8.07613,12.24544 -3.92684,2.53323 -8.90157,3.32328 -13.45847,2.28795 -4.55691,-1.03533 -8.65707,-3.84826 -11.39759,-7.63334 -2.18451,-3.01715 -3.52011,-6.61576 -4.01253,-10.30802 -0.49242,-3.69226 -0.15582,-7.47473 0.80529,-11.07355 0.54261,-2.031755 1.28774,-4.044794 1.33635,-6.147195 0.0555,-2.402438 -0.85047,-4.813763 -2.47429,-6.585204 -1.62382,-1.771441 -3.94741,-2.883326 -6.3456,-3.036499 z"
       id="path6213-6"
       inkscape:connector-curvature="0"
       inkscape:path-effect="#path-effect6215-5"
       inkscape:original-d="m 142.18739,86.124342 c 0,0 27.97447,10.334157 41.96131,15.501628 13.98684,5.16748 -4.27605,17.99589 -6.41447,26.99423 -2.13842,8.99833 -16.57044,-3.56386 -24.85606,-5.34539 -8.28562,-1.78154 -2.13789,-14.25464 -3.20724,-21.38157 -1.06934,-7.126918 0.89117,-4.098394 1.33635,-6.147195 0.44519,-2.048801 -8.81989,-9.621703 -8.81989,-9.621703 z"
       transform="matrix(-0.5195731,0.43530681,0.43530681,0.5195731,172.82131,51.828784)"
       inkscape:export-xdpi="96"
       inkscape:export-ydpi="96" />
    <path
       style="fill:#ff0000;fill-opacity:1;stroke:none;stroke-width:0.26458332px;stroke-linecap:butt;stroke-linejoin:miter;stroke-opacity:1;filter:url(#filter1281)"
       d="m 142.18739,86.124342 c 7.46273,-3.79356 16.51577,-4.321119 24.36862,-1.420065 7.85286,2.901054 14.38861,9.187528 17.59269,16.921693 1.92178,4.63888 2.66939,9.82975 1.66166,14.74879 -1.00773,4.91903 -3.85673,9.52347 -8.07613,12.24544 -3.92684,2.53323 -8.90157,3.32328 -13.45847,2.28795 -4.55691,-1.03533 -8.65707,-3.84826 -11.39759,-7.63334 -2.18451,-3.01715 -3.52011,-6.61576 -4.01253,-10.30802 -0.49242,-3.69226 -0.15582,-7.47473 0.80529,-11.07355 0.54261,-2.031755 1.28774,-4.044794 1.33635,-6.147195 0.0555,-2.402438 -0.85047,-4.813763 -2.47429,-6.585204 -1.62382,-1.771441 -3.94741,-2.883326 -6.3456,-3.036499 z"
       id="path6213-7"
       inkscape:connector-curvature="0"
       inkscape:path-effect="#path-effect6215-6"
       inkscape:original-d="m 142.18739,86.124342 c 0,0 27.97447,10.334157 41.96131,15.501628 13.98684,5.16748 -4.27605,17.99589 -6.41447,26.99423 -2.13842,8.99833 -16.57044,-3.56386 -24.85606,-5.34539 -8.28562,-1.78154 -2.13789,-14.25464 -3.20724,-21.38157 -1.06934,-7.126918 0.89117,-4.098394 1.33635,-6.147195 0.44519,-2.048801 -8.81989,-9.621703 -8.81989,-9.621703 z"
       transform="matrix(0.40252494,-0.54536401,-0.54536401,-0.40252494,98.155486,236.0951)" />
    <path
       style="fill:#ff0000;fill-opacity:1;stroke:none;stroke-width:0.26458332px;stroke-linecap:butt;stroke-linejoin:miter;stroke-opacity:1;filter:url(#filter1269)"
       d="m 142.18739,86.124342 c 7.46273,-3.79356 16.51577,-4.321119 24.36862,-1.420065 7.85286,2.901054 14.38861,9.187528 17.59269,16.921693 1.92178,4.63888 2.66939,9.82975 1.66166,14.74879 -1.00773,4.91903 -3.85673,9.52347 -8.07613,12.24544 -3.92684,2.53323 -8.90157,3.32328 -13.45847,2.28795 -4.55691,-1.03533 -8.65707,-3.84826 -11.39759,-7.63334 -2.18451,-3.01715 -3.52011,-6.61576 -4.01253,-10.30802 -0.49242,-3.69226 -0.15582,-7.47473 0.80529,-11.07355 0.54261,-2.031755 1.28774,-4.044794 1.33635,-6.147195 0.0555,-2.402438 -0.85047,-4.813763 -2.47429,-6.585204 -1.62382,-1.771441 -3.94741,-2.883326 -6.3456,-3.036499 z"
       id="path6213-7-3"
       inkscape:connector-curvature="0"
       inkscape:path-effect="#path-effect6215-6-5"
       inkscape:original-d="m 142.18739,86.124342 c 0,0 27.97447,10.334157 41.96131,15.501628 13.98684,5.16748 -4.27605,17.99589 -6.41447,26.99423 -2.13842,8.99833 -16.57044,-3.56386 -24.85606,-5.34539 -8.28562,-1.78154 -2.13789,-14.25464 -3.20724,-21.38157 -1.06934,-7.126918 0.89117,-4.098394 1.33635,-6.147195 0.44519,-2.048801 -8.81989,-9.621703 -8.81989,-9.621703 z"
       transform="matrix(-0.19538825,-0.64905444,-0.64905444,0.19538825,184.8459,198.54994)" />
    <path
       style="fill:#ff0000;fill-opacity:1;stroke:none;stroke-width:0.26458332px;stroke-linecap:butt;stroke-linejoin:miter;stroke-opacity:1;filter:url(#filter1293)"
       d="m 142.18739,86.124342 c 7.46273,-3.79356 16.51577,-4.321119 24.36862,-1.420065 7.85286,2.901054 14.38861,9.187528 17.59269,16.921693 1.92178,4.63888 2.66939,9.82975 1.66166,14.74879 -1.00773,4.91903 -3.85673,9.52347 -8.07613,12.24544 -3.92684,2.53323 -8.90157,3.32328 -13.45847,2.28795 -4.55691,-1.03533 -8.65707,-3.84826 -11.39759,-7.63334 -2.18451,-3.01715 -3.52011,-6.61576 -4.01253,-10.30802 -0.49242,-3.69226 -0.15582,-7.47473 0.80529,-11.07355 0.54261,-2.031755 1.28774,-4.044794 1.33635,-6.147195 0.0555,-2.402438 -0.85047,-4.813763 -2.47429,-6.585204 -1.62382,-1.771441 -3.94741,-2.883326 -6.3456,-3.036499 z"
       id="path6213"
       inkscape:connector-curvature="0"
       inkscape:path-effect="#path-effect6215"
       inkscape:original-d="m 142.18739,86.124342 c 0,0 27.97447,10.334157 41.96131,15.501628 13.98684,5.16748 -4.27605,17.99589 -6.41447,26.99423 -2.13842,8.99833 -16.57044,-3.56386 -24.85606,-5.34539 -8.28562,-1.78154 -2.13789,-14.25464 -3.20724,-21.38157 -1.06934,-7.126918 0.89117,-4.098394 1.33635,-6.147195 0.44519,-2.048801 -8.81989,-9.621703 -8.81989,-9.621703 z"
       transform="matrix(0.16704848,-0.65691935,0.65691935,0.16704848,30.806696,212.88665)" />
    <path
       sodipodi:type="star"
       style="fill:#ffa000;fill-opacity:1;stroke:none;stroke-width:2.305547;stroke-linecap:butt;stroke-linejoin:miter;stroke-miterlimit:4;stroke-dasharray:none;stroke-dashoffset:0;stroke-opacity:1;filter:url(#filter1233)"
       id="path6207"
       sodipodi:sides="3"
       sodipodi:cx="169.98341"
       sodipodi:cy="162.02888"
       sodipodi:r1="18.631441"
       sodipodi:r2="23.473177"
       sodipodi:arg1="0.57827116"
       sodipodi:arg2="1.6254687"
       inkscape:flatsided="true"
       inkscape:rounded="0"
       inkscape:randomized="0"
       d="m 185.58555,172.2124 -32.22239,-1.76343 17.63837,-27.02369 z"
       inkscape:transform-center-x="-12.027034"
       inkscape:transform-center-y="9.6175664"
       transform="matrix(1.0532539,-0.65495897,0.6570778,1.0498575,-148.01825,92.302818)"
       inkscape:export-xdpi="96"
       inkscape:export-ydpi="96" />
    <circle
       id="path14"
       cx="93.175285"
       cy="153.93678"
       r="43.899986"
       style="fill:#aa4400;fill-opacity:1;stroke:none;stroke-width:1.65204585;stroke-miterlimit:4;stroke-dasharray:none;stroke-opacity:1;filter:url(#filter1245)" />
    <circle
       style="fill:#ffffff;stroke:none;stroke-width:2.95838428;stroke-miterlimit:4;stroke-dasharray:none;stroke-opacity:1"
       id="path4571"
       cx="96.725143"
       cy="153.78532"
       r="33.280113" />
    <circle
       style="fill:#f35a00;fill-opacity:1;stroke:#f35a00;stroke-width:0;stroke-miterlimit:4;stroke-dasharray:none;stroke-opacity:1"
       id="path4573-2"
       cx="100.42931"
       cy="153.78532"
       r="27.886671" />
    <circle
       style="fill:#000000;fill-opacity:1;stroke:#ff9d3f;stroke-width:6.64499998;stroke-miterlimit:4;stroke-dasharray:none;stroke-opacity:1"
       id="path4573"
       cx="104.66264"
       cy="153.25616"
       r="16.585579" />
    <circle
       style="fill:#ffffff;fill-opacity:1;stroke:none;stroke-width:0.50497156;stroke-miterlimit:4;stroke-dasharray:none;stroke-opacity:1"
       id="path4577-3"
       cx="108.35308"
       cy="151.77922"
       r="6.7481732" />
  </g>
</svg>
