<?xml version="1.0" encoding="UTF-8" standalone="no"?>
<!-- Created with Inkscape (http://www.inkscape.org/) -->

<svg
   xmlns:osb="http://www.openswatchbook.org/uri/2009/osb"
   xmlns:dc="http://purl.org/dc/elements/1.1/"
   xmlns:cc="http://creativecommons.org/ns#"
   xmlns:rdf="http://www.w3.org/1999/02/22-rdf-syntax-ns#"
   xmlns:svg="http://www.w3.org/2000/svg"
   xmlns="http://www.w3.org/2000/svg"
   xmlns:sodipodi="http://sodipodi.sourceforge.net/DTD/sodipodi-0.dtd"
   xmlns:inkscape="http://www.inkscape.org/namespaces/inkscape"
   width="136.74223mm"
   height="152.14839mm"
   viewBox="0 0 136.74224 152.14839"
   version="1.1"
   id="svg8"
   inkscape:export-filename="/home/reppard/work/src/gitlab.com/reppard/link-aggregator/web/img/logo.png"
   inkscape:export-xdpi="96"
   inkscape:export-ydpi="96"
   inkscape:version="0.92.5 (2060ec1f9f, 2020-04-08)"
   sodipodi:docname="logo.svg.2020_08_11_10_48_40.0.svg">
  <defs
     id="defs2">
    <inkscape:path-effect
       effect="spiro"
       id="path-effect4406"
       is_visible="true" />
    <inkscape:path-effect
       effect="spiro"
       id="path-effect6215"
       is_visible="true" />
    <linearGradient
       id="linearGradient6145"
       osb:paint="solid">
      <stop
         style="stop-color:#7c0000;stop-opacity:1;"
         offset="0"
         id="stop6143" />
    </linearGradient>
    <inkscape:path-effect
       effect="spiro"
       id="path-effect4569"
       is_visible="true" />
    <inkscape:path-effect
       effect="spiro"
       id="path-effect4565"
       is_visible="true" />
    <inkscape:path-effect
       effect="powerstroke"
       id="path-effect4534"
       is_visible="true"
       offset_points="0,0.13229166"
       sort_points="true"
       interpolator_type="CubicBezierJohan"
       interpolator_beta="0.2"
       start_linecap_type="zerowidth"
       linejoin_type="extrp_arc"
       miter_limit="4"
       end_linecap_type="zerowidth" />
    <inkscape:path-effect
       effect="skeletal"
       id="path-effect4530"
       is_visible="true"
       pattern="M 0,5 C 0,2.24 2.24,0 5,0 7.76,0 10,2.24 10,5 10,7.76 7.76,10 5,10 2.24,10 0,7.76 0,5 Z"
       copytype="single_stretched"
       prop_scale="1"
       scale_y_rel="false"
       spacing="0"
       normal_offset="0"
       tang_offset="0"
       prop_units="false"
       vertical_pattern="false"
       fuse_tolerance="0" />
    <inkscape:path-effect
       effect="spiro"
       id="path-effect6215-6"
       is_visible="true" />
    <inkscape:path-effect
       effect="spiro"
       id="path-effect6215-6-5"
       is_visible="true" />
    <inkscape:path-effect
       effect="spiro"
       id="path-effect6215-5"
       is_visible="true" />
    <inkscape:path-effect
       effect="spiro"
       id="path-effect6215-5-2"
       is_visible="true" />
    <filter
       style="color-interpolation-filters:sRGB"
       inkscape:label="Drop Shadow"
       id="filter1209">
      <feFlood
         flood-opacity="0.498039"
         flood-color="rgb(0,0,0)"
         result="flood"
         id="feFlood1199" />
      <feComposite
         in="flood"
         in2="SourceGraphic"
         operator="out"
         result="composite1"
         id="feComposite1201" />
      <feGaussianBlur
         in="composite1"
         stdDeviation="6"
         result="blur"
         id="feGaussianBlur1203" />
      <feOffset
         dx="2"
         dy="2"
         result="offset"
         id="feOffset1205" />
      <feComposite
         in="offset"
         in2="SourceGraphic"
         operator="atop"
         result="fbSourceGraphic"
         id="feComposite1207" />
      <feColorMatrix
         result="fbSourceGraphicAlpha"
         in="fbSourceGraphic"
         values="0 0 0 -1 0 0 0 0 -1 0 0 0 0 -1 0 0 0 0 1 0"
         id="feColorMatrix1111" />
      <feFlood
         id="feFlood1113"
         flood-opacity="0.498039"
         flood-color="rgb(0,0,0)"
         result="flood"
         in="fbSourceGraphic" />
      <feComposite
         in2="fbSourceGraphic"
         id="feComposite1115"
         in="flood"
         operator="out"
         result="composite1" />
      <feGaussianBlur
         id="feGaussianBlur1117"
         in="composite1"
         stdDeviation="6"
         result="blur" />
      <feOffset
         id="feOffset1119"
         dx="6"
         dy="6"
         result="offset" />
      <feComposite
         in2="fbSourceGraphic"
         id="feComposite1121"
         in="offset"
         operator="atop"
         result="composite2" />
    </filter>
    <filter
       style="color-interpolation-filters:sRGB"
       inkscape:label="Drop Shadow"
       id="filter1221">
      <feFlood
         flood-opacity="0.498039"
         flood-color="rgb(0,0,0)"
         result="flood"
         id="feFlood1211" />
      <feComposite
         in="flood"
         in2="SourceGraphic"
         operator="out"
         result="composite1"
         id="feComposite1213" />
      <feGaussianBlur
         in="composite1"
         stdDeviation="6"
         result="blur"
         id="feGaussianBlur1215" />
      <feOffset
         dx="2"
         dy="2"
         result="offset"
         id="feOffset1217" />
      <feComposite
         in="offset"
         in2="SourceGraphic"
         operator="atop"
         result="fbSourceGraphic"
         id="feComposite1219" />
      <feColorMatrix
         result="fbSourceGraphicAlpha"
         in="fbSourceGraphic"
         values="0 0 0 -1 0 0 0 0 -1 0 0 0 0 -1 0 0 0 0 1 0"
         id="feColorMatrix1065" />
      <feFlood
         id="feFlood1067"
         flood-opacity="0.498039"
         flood-color="rgb(0,0,0)"
         result="flood"
         in="fbSourceGraphic" />
      <feComposite
         in2="fbSourceGraphic"
         id="feComposite1069"
         in="flood"
         operator="out"
         result="composite1" />
      <feGaussianBlur
         id="feGaussianBlur1071"
         in="composite1"
         stdDeviation="6"
         result="blur" />
      <feOffset
         id="feOffset1073"
         dx="6"
         dy="6"
         result="offset" />
      <feComposite
         in2="fbSourceGraphic"
         id="feComposite1075"
         in="offset"
         operator="atop"
         result="composite2" />
    </filter>
    <filter
       style="color-interpolation-filters:sRGB"
       inkscape:label="Drop Shadow"
       id="filter1233">
      <feFlood
         flood-opacity="0.498039"
         flood-color="rgb(0,0,0)"
         result="flood"
         id="feFlood1223" />
      <feComposite
         in="flood"
         in2="SourceGraphic"
         operator="out"
         result="composite1"
         id="feComposite1225" />
      <feGaussianBlur
         in="composite1"
         stdDeviation="6"
         result="blur"
         id="feGaussianBlur1227" />
      <feOffset
         dx="2"
         dy="2"
         result="offset"
         id="feOffset1229" />
      <feComposite
         in="offset"
         in2="SourceGraphic"
         operator="atop"
         result="composite2"
         id="feComposite1231" />
    </filter>
    <filter
       style="color-interpolation-filters:sRGB;"
       inkscape:label="Cross Blur"
       id="filter1245">
      <feFlood
         flood-opacity="0.498039"
         flood-color="rgb(0,0,0)"
         result="flood"
         id="feFlood1235" />
      <feComposite
         in="flood"
         in2="SourceGraphic"
         operator="out"
         result="composite1"
         id="feComposite1237" />
      <feGaussianBlur
         in="composite1"
         stdDeviation="6"
         result="blur"
         id="feGaussianBlur1239" />
      <feOffset
         dx="2"
         dy="2"
         result="offset"
         id="feOffset1241" />
      <feComposite
         in="offset"
         in2="SourceGraphic"
         operator="atop"
         result="fbSourceGraphic"
         id="feComposite1243" />
      <feColorMatrix
         result="fbSourceGraphicAlpha"
         in="fbSourceGraphic"
         values="0 0 0 -1 0 0 0 0 -1 0 0 0 0 -1 0 0 0 0 1 0"
         id="feColorMatrix8564" />
      <feColorMatrix
         id="feColorMatrix8566"
         in="fbSourceGraphic"
         values="1 0 0 0 0 0 1 0 0 0 0 0 1 0 0 -0.2125 -0.7154 -0.0721 1 0 "
         result="colormatrix" />
      <feComposite
         in2="colormatrix"
         id="feComposite8568"
         in="fbSourceGraphic"
         operator="arithmetic"
         k2="1"
         k3="0"
         k4="0"
         result="composite" />
      <feGaussianBlur
         id="feGaussianBlur8570"
         stdDeviation="0.01 0.01"
         result="blur1" />
      <feGaussianBlur
         id="feGaussianBlur8572"
         in="composite"
         stdDeviation="0.01 0.01"
         result="blur2" />
      <feBlend
         in2="blur1"
         id="feBlend8574"
         in="blur2"
         mode="screen"
         result="blend" />
    </filter>
    <filter
       style="color-interpolation-filters:sRGB"
       inkscape:label="Drop Shadow"
       id="filter1269">
      <feFlood
         flood-opacity="0.498039"
         flood-color="rgb(0,0,0)"
         result="flood"
         id="feFlood1259" />
      <feComposite
         in="flood"
         in2="SourceGraphic"
         operator="out"
         result="composite1"
         id="feComposite1261" />
      <feGaussianBlur
         in="composite1"
         stdDeviation="6"
         result="blur"
         id="feGaussianBlur1263" />
      <feOffset
         dx="2"
         dy="2"
         result="offset"
         id="feOffset1265" />
      <feComposite
         in="offset"
         in2="SourceGraphic"
         operator="atop"
         result="fbSourceGraphic"
         id="feComposite1267" />
      <feColorMatrix
         result="fbSourceGraphicAlpha"
         in="fbSourceGraphic"
         values="0 0 0 -1 0 0 0 0 -1 0 0 0 0 -1 0 0 0 0 1 0"
         id="feColorMatrix1005" />
      <feFlood
         id="feFlood1007"
         flood-opacity="0.498039"
         flood-color="rgb(0,0,0)"
         result="flood"
         in="fbSourceGraphic" />
      <feComposite
         in2="fbSourceGraphic"
         id="feComposite1009"
         in="flood"
         operator="out"
         result="composite1" />
      <feGaussianBlur
         id="feGaussianBlur1011"
         in="composite1"
         stdDeviation="6"
         result="blur" />
      <feOffset
         id="feOffset1013"
         dx="6"
         dy="6"
         result="offset" />
      <feComposite
         in2="fbSourceGraphic"
         id="feComposite1015"
         in="offset"
         operator="atop"
         result="composite2" />
    </filter>
    <filter
       style="color-interpolation-filters:sRGB"
       inkscape:label="Drop Shadow"
       id="filter1281">
      <feFlood
         flood-opacity="0.498039"
         flood-color="rgb(0,0,0)"
         result="flood"
         id="feFlood1271" />
      <feComposite
         in="flood"
         in2="SourceGraphic"
         operator="out"
         result="composite1"
         id="feComposite1273" />
      <feGaussianBlur
         in="composite1"
         stdDeviation="6"
         result="blur"
         id="feGaussianBlur1275" />
      <feOffset
         dx="2"
         dy="2"
         result="offset"
         id="feOffset1277" />
      <feComposite
         in="offset"
         in2="SourceGraphic"
         operator="atop"
         result="fbSourceGraphic"
         id="feComposite1279" />
      <feColorMatrix
         result="fbSourceGraphicAlpha"
         in="fbSourceGraphic"
         values="0 0 0 -1 0 0 0 0 -1 0 0 0 0 -1 0 0 0 0 1 0"
         id="feColorMatrix1017" />
      <feFlood
         id="feFlood1019"
         flood-opacity="0.498039"
         flood-color="rgb(0,0,0)"
         result="flood"
         in="fbSourceGraphic" />
      <feComposite
         in2="fbSourceGraphic"
         id="feComposite1021"
         in="flood"
         operator="out"
         result="composite1" />
      <feGaussianBlur
         id="feGaussianBlur1023"
         in="composite1"
         stdDeviation="6"
         result="blur" />
      <feOffset
         id="feOffset1025"
         dx="6"
         dy="6"
         result="offset" />
      <feComposite
         in2="fbSourceGraphic"
         id="feComposite1027"
         in="offset"
         operator="atop"
         result="composite2" />
    </filter>
    <filter
       style="color-interpolation-filters:sRGB"
       inkscape:label="Drop Shadow"
       id="filter1293">
      <feFlood
         flood-opacity="0.498039"
         flood-color="rgb(0,0,0)"
         result="flood"
         id="feFlood1283" />
      <feComposite
         in="flood"
         in2="SourceGraphic"
         operator="out"
         result="composite1"
         id="feComposite1285" />
      <feGaussianBlur
         in="composite1"
         stdDeviation="6"
         result="blur"
         id="feGaussianBlur1287" />
      <feOffset
         dx="2"
         dy="2"
         result="offset"
         id="feOffset1289" />
      <feComposite
         in="offset"
         in2="SourceGraphic"
         operator="atop"
         result="fbSourceGraphic"
         id="feComposite1291" />
      <feColorMatrix
         result="fbSourceGraphicAlpha"
         in="fbSourceGraphic"
         values="0 0 0 -1 0 0 0 0 -1 0 0 0 0 -1 0 0 0 0 1 0"
         id="feColorMatrix1029" />
      <feFlood
         id="feFlood1031"
         flood-opacity="0.498039"
         flood-color="rgb(0,0,0)"
         result="flood"
         in="fbSourceGraphic" />
      <feComposite
         in2="fbSourceGraphic"
         id="feComposite1033"
         in="flood"
         operator="out"
         result="composite1" />
      <feGaussianBlur
         id="feGaussianBlur1035"
         in="composite1"
         stdDeviation="6"
         result="blur" />
      <feOffset
         id="feOffset1037"
         dx="6"
         dy="6"
         result="offset" />
      <feComposite
         in2="fbSourceGraphic"
         id="feComposite1039"
         in="offset"
         operator="atop"
         result="composite2" />
    </filter>
    <filter
       style="color-interpolation-filters:sRGB;"
       inkscape:label="Cross Blur"
       id="filter31692">
      <feFlood
         flood-opacity="0.188235"
         flood-color="rgb(0,0,0)"
         result="flood"
         id="feFlood31682" />
      <feComposite
         in="flood"
         in2="SourceGraphic"
         operator="out"
         result="composite1"
         id="feComposite31684" />
      <feGaussianBlur
         in="composite1"
         stdDeviation="0"
         result="blur"
         id="feGaussianBlur31686" />
      <feOffset
         dx="4.46865e-15"
         dy="-2.2"
         result="offset"
         id="feOffset31688" />
      <feComposite
         in="offset"
         in2="SourceGraphic"
         operator="atop"
         result="fbSourceGraphic"
         id="feComposite31690" />
      <feColorMatrix
         result="fbSourceGraphicAlpha"
         in="fbSourceGraphic"
         values="0 0 0 -1 0 0 0 0 -1 0 0 0 0 -1 0 0 0 0 1 0"
         id="feColorMatrix36107" />
      <feFlood
         id="feFlood36109"
         flood-opacity="0.188235"
         flood-color="rgb(0,0,0)"
         result="flood"
         in="fbSourceGraphic" />
      <feComposite
         in2="fbSourceGraphic"
         id="feComposite36111"
         in="flood"
         operator="in"
         result="composite1" />
      <feGaussianBlur
         id="feGaussianBlur36113"
         in="composite1"
         stdDeviation="0"
         result="blur" />
      <feOffset
         id="feOffset36115"
         dx="-2.9"
         dy="-2.77556e-17"
         result="offset" />
      <feComposite
         in2="offset"
         id="feComposite36117"
         in="fbSourceGraphic"
         operator="over"
         result="fbSourceGraphic" />
      <feColorMatrix
         result="fbSourceGraphicAlpha"
         in="fbSourceGraphic"
         values="0 0 0 -1 0 0 0 0 -1 0 0 0 0 -1 0 0 0 0 1 0"
         id="feColorMatrix8540" />
      <feColorMatrix
         id="feColorMatrix8542"
         in="fbSourceGraphic"
         values="1 0 0 0 0 0 1 0 0 0 0 0 1 0 0 -0.2125 -0.7154 -0.0721 1 0 "
         result="colormatrix" />
      <feComposite
         in2="colormatrix"
         id="feComposite8544"
         in="fbSourceGraphic"
         operator="arithmetic"
         k2="1"
         k3="0"
         k4="0"
         result="composite" />
      <feGaussianBlur
         id="feGaussianBlur8546"
         stdDeviation="0.01 0.01"
         result="blur1" />
      <feGaussianBlur
         id="feGaussianBlur8548"
         in="composite"
         stdDeviation="0.01 0.01"
         result="blur2" />
      <feBlend
         in2="blur1"
         id="feBlend8550"
         in="blur2"
         mode="screen"
         result="blend" />
    </filter>
    <inkscape:path-effect
       effect="spiro"
       id="path-effect31120"
       is_visible="true" />
    <filter
       style="color-interpolation-filters:sRGB"
       inkscape:label="Drop Shadow"
       id="filter31836">
      <feFlood
         flood-opacity="0.188235"
         flood-color="rgb(0,0,0)"
         result="flood"
         id="feFlood31826" />
      <feComposite
         in="flood"
         in2="SourceGraphic"
         operator="out"
         result="composite1"
         id="feComposite31828" />
      <feGaussianBlur
         in="composite1"
         stdDeviation="0"
         result="blur"
         id="feGaussianBlur31830" />
      <feOffset
         dx="1.5"
         dy="2.2"
         result="offset"
         id="feOffset31832" />
      <feComposite
         in="offset"
         in2="SourceGraphic"
         operator="atop"
         result="fbSourceGraphic"
         id="feComposite31834" />
      <feColorMatrix
         result="fbSourceGraphicAlpha"
         in="fbSourceGraphic"
         values="0 0 0 -1 0 0 0 0 -1 0 0 0 0 -1 0 0 0 0 1 0"
         id="feColorMatrix31838" />
      <feFlood
         id="feFlood31840"
         flood-opacity="0.188235"
         flood-color="rgb(0,0,0)"
         result="flood"
         in="fbSourceGraphic" />
      <feComposite
         in2="fbSourceGraphic"
         id="feComposite31842"
         in="flood"
         operator="out"
         result="composite1" />
      <feGaussianBlur
         id="feGaussianBlur31844"
         in="composite1"
         stdDeviation="0"
         result="blur" />
      <feOffset
         id="feOffset31846"
         dx="1.5"
         dy="2.2"
         result="offset" />
      <feComposite
         in2="fbSourceGraphic"
         id="feComposite31848"
         in="offset"
         operator="atop"
         result="composite2" />
    </filter>
    <inkscape:path-effect
       effect="spiro"
       id="path-effect31128"
       is_visible="true" />
    <filter
       style="color-interpolation-filters:sRGB"
       inkscape:label="Drop Shadow"
       id="filter34833">
      <feFlood
         flood-opacity="0.188235"
         flood-color="rgb(0,0,0)"
         result="flood"
         id="feFlood34823" />
      <feComposite
         in="flood"
         in2="SourceGraphic"
         operator="out"
         result="composite1"
         id="feComposite34825" />
      <feGaussianBlur
         in="composite1"
         stdDeviation="0"
         result="blur"
         id="feGaussianBlur34827" />
      <feOffset
         dx="10.6952"
         dy="-5.3"
         result="offset"
         id="feOffset34829" />
      <feComposite
         in="offset"
         in2="SourceGraphic"
         operator="atop"
         result="fbSourceGraphic"
         id="feComposite34831" />
      <feColorMatrix
         result="fbSourceGraphicAlpha"
         in="fbSourceGraphic"
         values="0 0 0 -1 0 0 0 0 -1 0 0 0 0 -1 0 0 0 0 1 0"
         id="feColorMatrix35891" />
      <feFlood
         id="feFlood35893"
         flood-opacity="0.188235"
         flood-color="rgb(0,0,0)"
         result="flood"
         in="fbSourceGraphic" />
      <feComposite
         in2="fbSourceGraphic"
         id="feComposite35895"
         in="flood"
         operator="in"
         result="composite1" />
      <feGaussianBlur
         id="feGaussianBlur35897"
         in="composite1"
         stdDeviation="0"
         result="blur" />
      <feOffset
         id="feOffset35899"
         dx="2.4"
         dy="0.8"
         result="offset" />
      <feComposite
         in2="offset"
         id="feComposite35901"
         in="fbSourceGraphic"
         operator="over"
         result="composite2" />
    </filter>
    <filter
       style="color-interpolation-filters:sRGB"
       inkscape:label="Drop Shadow"
       id="filter34857">
      <feFlood
         flood-opacity="0.188235"
         flood-color="rgb(0,0,0)"
         result="flood"
         id="feFlood34847" />
      <feComposite
         in="flood"
         in2="SourceGraphic"
         operator="out"
         result="composite1"
         id="feComposite34849" />
      <feGaussianBlur
         in="composite1"
         stdDeviation="0"
         result="blur"
         id="feGaussianBlur34851" />
      <feOffset
         dx="10.7"
         dy="-5.3"
         result="offset"
         id="feOffset34853" />
      <feComposite
         in="offset"
         in2="SourceGraphic"
         operator="atop"
         result="composite2"
         id="feComposite34855" />
    </filter>
    <filter
       style="color-interpolation-filters:sRGB"
       inkscape:label="Drop Shadow"
       id="filter35181">
      <feFlood
         flood-opacity="0.188235"
         flood-color="rgb(0,0,0)"
         result="flood"
         id="feFlood35171" />
      <feComposite
         in="flood"
         in2="SourceGraphic"
         operator="out"
         result="composite1"
         id="feComposite35173" />
      <feGaussianBlur
         in="composite1"
         stdDeviation="0"
         result="blur"
         id="feGaussianBlur35175" />
      <feOffset
         dx="5.1"
         dy="-4.8"
         result="offset"
         id="feOffset35177" />
      <feComposite
         in="offset"
         in2="SourceGraphic"
         operator="atop"
         result="fbSourceGraphic"
         id="feComposite35179" />
      <feColorMatrix
         result="fbSourceGraphicAlpha"
         in="fbSourceGraphic"
         values="0 0 0 -1 0 0 0 0 -1 0 0 0 0 -1 0 0 0 0 1 0"
         id="feColorMatrix2968" />
      <feFlood
         id="feFlood2970"
         flood-opacity="0.211765"
         flood-color="rgb(0,0,0)"
         result="flood"
         in="fbSourceGraphic" />
      <feComposite
         in2="fbSourceGraphic"
         id="feComposite2972"
         in="flood"
         operator="out"
         result="composite1" />
      <feGaussianBlur
         id="feGaussianBlur2974"
         in="composite1"
         stdDeviation="4.57967e-15"
         result="blur" />
      <feOffset
         id="feOffset2976"
         dx="0.534759"
         dy="-3.5"
         result="offset" />
      <feComposite
         in2="fbSourceGraphic"
         id="feComposite2978"
         in="offset"
         operator="atop"
         result="composite2" />
    </filter>
    <filter
       style="color-interpolation-filters:sRGB"
       inkscape:label="Drop Shadow"
       id="filter35325">
      <feFlood
         flood-opacity="0.188235"
         flood-color="rgb(0,0,0)"
         result="flood"
         id="feFlood35315" />
      <feComposite
         in="flood"
         in2="SourceGraphic"
         operator="out"
         result="composite1"
         id="feComposite35317" />
      <feGaussianBlur
         in="composite1"
         stdDeviation="0"
         result="blur"
         id="feGaussianBlur35319" />
      <feOffset
         dx="15"
         dy="-4.8"
         result="offset"
         id="feOffset35321" />
      <feComposite
         in="offset"
         in2="SourceGraphic"
         operator="atop"
         result="composite2"
         id="feComposite35323" />
    </filter>
    <filter
       style="color-interpolation-filters:sRGB"
       inkscape:label="Drop Shadow"
       id="filter35673">
      <feFlood
         flood-opacity="0.188235"
         flood-color="rgb(0,0,0)"
         result="flood"
         id="feFlood35663" />
      <feComposite
         in="flood"
         in2="SourceGraphic"
         operator="in"
         result="composite1"
         id="feComposite35665" />
      <feGaussianBlur
         in="composite1"
         stdDeviation="0"
         result="blur"
         id="feGaussianBlur35667" />
      <feOffset
         dx="-6.4"
         dy="0"
         result="offset"
         id="feOffset35669" />
      <feComposite
         in="SourceGraphic"
         in2="offset"
         operator="over"
         result="composite2"
         id="feComposite35671" />
    </filter>
    <filter
       style="color-interpolation-filters:sRGB"
       inkscape:label="Drop Shadow"
       id="filter1958">
      <feFlood
         flood-opacity="0.211765"
         flood-color="rgb(0,0,0)"
         result="flood"
         id="feFlood1948" />
      <feComposite
         in="flood"
         in2="SourceGraphic"
         operator="out"
         result="composite1"
         id="feComposite1950" />
      <feGaussianBlur
         in="composite1"
         stdDeviation="4.57967e-15"
         result="blur"
         id="feGaussianBlur1952" />
      <feOffset
         dx="-9.5"
         dy="4.7"
         result="offset"
         id="feOffset1954" />
      <feComposite
         in="offset"
         in2="SourceGraphic"
         operator="atop"
         result="composite2"
         id="feComposite1956" />
    </filter>
    <filter
       style="color-interpolation-filters:sRGB"
       inkscape:label="Drop Shadow"
       id="filter2030">
      <feFlood
         flood-opacity="0.211765"
         flood-color="rgb(0,0,0)"
         result="flood"
         id="feFlood2020" />
      <feComposite
         in="flood"
         in2="SourceGraphic"
         operator="out"
         result="composite1"
         id="feComposite2022" />
      <feGaussianBlur
         in="composite1"
         stdDeviation="4.57967e-15"
         result="blur"
         id="feGaussianBlur2024" />
      <feOffset
         dx="-4.7"
         dy="4.7"
         result="offset"
         id="feOffset2026" />
      <feComposite
         in="offset"
         in2="SourceGraphic"
         operator="atop"
         result="fbSourceGraphic"
         id="feComposite2028" />
      <feColorMatrix
         result="fbSourceGraphicAlpha"
         in="fbSourceGraphic"
         values="0 0 0 -1 0 0 0 0 -1 0 0 0 0 -1 0 0 0 0 1 0"
         id="feColorMatrix2236" />
      <feFlood
         id="feFlood2238"
         flood-opacity="0.211765"
         flood-color="rgb(0,0,0)"
         result="flood"
         in="fbSourceGraphic" />
      <feComposite
         in2="fbSourceGraphic"
         id="feComposite2240"
         in="flood"
         operator="in"
         result="composite1" />
      <feGaussianBlur
         id="feGaussianBlur2242"
         in="composite1"
         stdDeviation="4.57967e-15"
         result="blur" />
      <feOffset
         id="feOffset2244"
         dx="3.1"
         dy="-2.77556e-17"
         result="offset" />
      <feComposite
         in2="offset"
         id="feComposite2246"
         in="fbSourceGraphic"
         operator="over"
         result="composite2" />
    </filter>
    <filter
       style="color-interpolation-filters:sRGB"
       inkscape:label="Drop Shadow"
       id="filter2390">
      <feFlood
         flood-opacity="0.211765"
         flood-color="rgb(0,0,0)"
         result="flood"
         id="feFlood2380" />
      <feComposite
         in="flood"
         in2="SourceGraphic"
         operator="out"
         result="composite1"
         id="feComposite2382" />
      <feGaussianBlur
         in="composite1"
         stdDeviation="4.57967e-15"
         result="blur"
         id="feGaussianBlur2384" />
      <feOffset
         dx="-4"
         dy="3.6"
         result="offset"
         id="feOffset2386" />
      <feComposite
         in="offset"
         in2="SourceGraphic"
         operator="atop"
         result="fbSourceGraphic"
         id="feComposite2388" />
      <feColorMatrix
         result="fbSourceGraphicAlpha"
         in="fbSourceGraphic"
         values="0 0 0 -1 0 0 0 0 -1 0 0 0 0 -1 0 0 0 0 1 0"
         id="feColorMatrix2608" />
      <feFlood
         id="feFlood2610"
         flood-opacity="0.211765"
         flood-color="rgb(0,0,0)"
         result="flood"
         in="fbSourceGraphic" />
      <feComposite
         in2="fbSourceGraphic"
         id="feComposite2612"
         in="flood"
         operator="in"
         result="composite1" />
      <feGaussianBlur
         id="feGaussianBlur2614"
         in="composite1"
         stdDeviation="4.57967e-15"
         result="blur" />
      <feOffset
         id="feOffset2616"
         dx="2.7"
         dy="0.8"
         result="offset" />
      <feComposite
         in2="offset"
         id="feComposite2618"
         in="fbSourceGraphic"
         operator="over"
         result="composite2" />
    </filter>
    <filter
       style="color-interpolation-filters:sRGB"
       inkscape:label="Drop Shadow"
       id="filter3590">
      <feFlood
         flood-opacity="0.211765"
         flood-color="rgb(0,0,0)"
         result="flood"
         id="feFlood3580" />
      <feComposite
         in="flood"
         in2="SourceGraphic"
         operator="out"
         result="composite1"
         id="feComposite3582" />
      <feGaussianBlur
         in="composite1"
         stdDeviation="4.57967e-15"
         result="blur"
         id="feGaussianBlur3584" />
      <feOffset
         dx="5.1"
         dy="-4.3"
         result="offset"
         id="feOffset3586" />
      <feComposite
         in="offset"
         in2="SourceGraphic"
         operator="atop"
         result="fbSourceGraphic"
         id="feComposite3588" />
      <feColorMatrix
         result="fbSourceGraphicAlpha"
         in="fbSourceGraphic"
         values="0 0 0 -1 0 0 0 0 -1 0 0 0 0 -1 0 0 0 0 1 0"
         id="feColorMatrix3676" />
      <feFlood
         id="feFlood3678"
         flood-opacity="0.211765"
         flood-color="rgb(0,0,0)"
         result="flood"
         in="fbSourceGraphic" />
      <feComposite
         in2="fbSourceGraphic"
         id="feComposite3680"
         in="flood"
         operator="out"
         result="composite1" />
      <feGaussianBlur
         id="feGaussianBlur3682"
         in="composite1"
         stdDeviation="4.57967e-15"
         result="blur" />
      <feOffset
         id="feOffset3684"
         dx="1.1"
         dy="1.3"
         result="offset" />
      <feComposite
         in2="fbSourceGraphic"
         id="feComposite3686"
         in="offset"
         operator="atop"
         result="composite2" />
    </filter>
    <filter
       style="color-interpolation-filters:sRGB"
       inkscape:label="Drop Shadow"
       id="filter35181-3">
      <feFlood
         flood-opacity="0.188235"
         flood-color="rgb(0,0,0)"
         result="flood"
         id="feFlood35171-6" />
      <feComposite
         in="flood"
         in2="SourceGraphic"
         operator="out"
         result="composite1"
         id="feComposite35173-7" />
      <feGaussianBlur
         in="composite1"
         stdDeviation="0"
         result="blur"
         id="feGaussianBlur35175-5" />
      <feOffset
         dx="5.1"
         dy="-4.8"
         result="offset"
         id="feOffset35177-3" />
      <feComposite
         in="offset"
         in2="SourceGraphic"
         operator="atop"
         result="fbSourceGraphic"
         id="feComposite35179-5" />
      <feColorMatrix
         result="fbSourceGraphicAlpha"
         in="fbSourceGraphic"
         values="0 0 0 -1 0 0 0 0 -1 0 0 0 0 -1 0 0 0 0 1 0"
         id="feColorMatrix2968-6" />
      <feFlood
         id="feFlood2970-2"
         flood-opacity="0.211765"
         flood-color="rgb(0,0,0)"
         result="flood"
         in="fbSourceGraphic" />
      <feComposite
         in2="fbSourceGraphic"
         id="feComposite2972-9"
         in="flood"
         operator="out"
         result="composite1" />
      <feGaussianBlur
         id="feGaussianBlur2974-1"
         in="composite1"
         stdDeviation="4.57967e-15"
         result="blur" />
      <feOffset
         id="feOffset2976-2"
         dx="0.534759"
         dy="-3.5"
         result="offset" />
      <feComposite
         in2="fbSourceGraphic"
         id="feComposite2978-7"
         in="offset"
         operator="atop"
         result="composite2" />
    </filter>
    <inkscape:path-effect
       effect="spiro"
       id="path-effect6215-6-0"
       is_visible="true" />
    <filter
       style="color-interpolation-filters:sRGB;"
       inkscape:label="Cross Blur"
       id="filter8562">
      <feColorMatrix
         in="SourceGraphic"
         values="1 0 0 0 0 0 1 0 0 0 0 0 1 0 0 -0.2125 -0.7154 -0.0721 1 0 "
         result="colormatrix"
         id="feColorMatrix8552" />
      <feComposite
         in="SourceGraphic"
         in2="colormatrix"
         operator="arithmetic"
         k2="1"
         k3="0"
         k4="0"
         result="composite"
         id="feComposite8554" />
      <feGaussianBlur
         stdDeviation="0.01 0.01"
         result="blur1"
         id="feGaussianBlur8556" />
      <feGaussianBlur
         in="composite"
         stdDeviation="0.01 0.01"
         result="blur2"
         id="feGaussianBlur8558" />
      <feBlend
         in="blur2"
         in2="blur1"
         mode="screen"
         result="blend"
         id="feBlend8560" />
    </filter>
    <filter
       style="color-interpolation-filters:sRGB"
       inkscape:label="Cross Blur"
       id="filter1245-9">
      <feFlood
         flood-opacity="0.498039"
         flood-color="rgb(0,0,0)"
         result="flood"
         id="feFlood1235-2" />
      <feComposite
         in="flood"
         in2="SourceGraphic"
         operator="out"
         result="composite1"
         id="feComposite1237-2" />
      <feGaussianBlur
         in="composite1"
         stdDeviation="6"
         result="blur"
         id="feGaussianBlur1239-8" />
      <feOffset
         dx="2"
         dy="2"
         result="offset"
         id="feOffset1241-9" />
      <feComposite
         in="offset"
         in2="SourceGraphic"
         operator="atop"
         result="fbSourceGraphic"
         id="feComposite1243-7" />
      <feColorMatrix
         result="fbSourceGraphicAlpha"
         in="fbSourceGraphic"
         values="0 0 0 -1 0 0 0 0 -1 0 0 0 0 -1 0 0 0 0 1 0"
         id="feColorMatrix8564-3" />
      <feColorMatrix
         id="feColorMatrix8566-6"
         in="fbSourceGraphic"
         values="1 0 0 0 0 0 1 0 0 0 0 0 1 0 0 -0.2125 -0.7154 -0.0721 1 0 "
         result="colormatrix" />
      <feComposite
         k1="0"
         in2="colormatrix"
         id="feComposite8568-1"
         in="fbSourceGraphic"
         operator="arithmetic"
         k2="1"
         k3="0"
         k4="0"
         result="composite" />
      <feGaussianBlur
         id="feGaussianBlur8570-2"
         stdDeviation="0.01 0.01"
         result="blur1" />
      <feGaussianBlur
         id="feGaussianBlur8572-9"
         in="composite"
         stdDeviation="0.01 0.01"
         result="blur2" />
      <feBlend
         in2="blur1"
         id="feBlend8574-3"
         in="blur2"
         mode="screen"
         result="blend" />
    </filter>
  </defs>
  <sodipodi:namedview
     id="base"
     pagecolor="#ffffff"
     bordercolor="#666666"
     borderopacity="1.0"
     inkscape:pageopacity="0.0"
     inkscape:pageshadow="2"
     inkscape:zoom="1.4142136"
     inkscape:cx="310.10355"
     inkscape:cy="291.87234"
     inkscape:document-units="mm"
     inkscape:current-layer="layer1"
     showgrid="false"
     inkscape:window-width="1920"
     inkscape:window-height="1016"
     inkscape:window-x="0"
     inkscape:window-y="27"
     inkscape:window-maximized="1">
    <inkscape:grid
       type="xygrid"
       id="grid16"
       originx="-34.371705"
       originy="-72.359314" />
  </sodipodi:namedview>
  <metadata
     id="metadata5">
    <rdf:RDF>
      <cc:Work
         rdf:about="">
        <dc:format>image/svg+xml</dc:format>
        <dc:type
           rdf:resource="http://purl.org/dc/dcmitype/StillImage" />
        <dc:title />
      </cc:Work>
    </rdf:RDF>
  </metadata>
  <g
     inkscape:label="Layer 1"
     inkscape:groupmode="layer"
     id="layer1"
     transform="translate(-34.371695,-72.492328)">
    <path
       style="fill:#803300;fill-opacity:1;stroke:none;stroke-width:0.26458332px;stroke-linecap:butt;stroke-linejoin:miter;stroke-opacity:1;filter:url(#filter8562)"
       d="m 59.765433,125.0461 c -11.924877,9.25167 -21.079564,22.02871 -26.005324,36.29521 -5.95779,17.25557 -5.620818,36.60914 0.934065,53.64684 6.554883,17.03771 19.276507,31.62655 35.263524,40.43934 15.987017,8.81279 35.114622,11.78072 53.020502,8.22692 17.90588,-3.55379 34.45025,-13.60158 45.85992,-27.85182 -5.91463,4.06597 -13.08629,6.27525 -20.26361,6.24234 -7.17732,-0.0329 -14.32842,-2.30785 -20.20552,-6.42788 -5.8771,-4.12003 -10.4541,-10.06685 -12.93238,-16.80281 -2.47827,-6.73596 -2.8468,-14.23114 -1.04129,-21.17773 0.72719,-2.7978 1.79792,-5.50613 3.18051,-8.04482 l -5.0514,-15.71544 -28.250383,-34.79849 z"
       id="path4404"
       inkscape:connector-curvature="0"
       inkscape:path-effect="#path-effect4406"
       inkscape:original-d="m 59.765433,125.0461 c 0,0 -17.336618,24.19654 -26.005324,36.29521 -8.668706,12.09866 135.078011,74.46128 135.078011,74.46128 0,0 -36.29493,-25.44432 -54.4428,-38.16608 -18.147861,-12.72177 3.18051,-8.04482 3.18051,-8.04482 0,0 -5.0514,-15.71544 -5.0514,-15.71544 0,0 -28.250383,-34.79849 -28.250383,-34.79849 0,0 -24.508614,-14.03166 -24.508614,-14.03166 z"
       transform="matrix(0.99826937,0.06209277,-0.04965777,0.79835103,14.277435,6.089636)" />
    <circle
       id="path14"
       cx="93.175285"
       cy="153.93678"
       r="43.899986"
       style="fill:#aa4400;fill-opacity:1;stroke:none;stroke-width:1.65204585;stroke-miterlimit:4;stroke-dasharray:none;stroke-opacity:1;filter:url(#filter1245)"
       inkscape:export-xdpi="96"
       inkscape:export-ydpi="96"
       transform="matrix(1.0583071,0,0,0.79478551,-12.916325,22.98398)" />
    <path
       style="fill:#ff0000;fill-opacity:1;stroke:none;stroke-width:0.26458332px;stroke-linecap:butt;stroke-linejoin:miter;stroke-opacity:1;filter:url(#filter3590)"
       d="m 142.18739,86.124342 c 7.46273,-3.79356 16.51577,-4.321119 24.36862,-1.420065 7.85286,2.901054 14.38861,9.187528 17.59269,16.921693 1.92178,4.63888 2.66939,9.82975 1.66166,14.74879 -1.00773,4.91903 -3.85673,9.52347 -8.07613,12.24544 -3.92684,2.53323 -8.90157,3.32328 -13.45847,2.28795 -4.55691,-1.03533 -8.65707,-3.84826 -11.39759,-7.63334 -2.18451,-3.01715 -3.52011,-6.61576 -4.01253,-10.30802 -0.49242,-3.69226 -0.15582,-7.47473 0.80529,-11.07355 0.54261,-2.031755 1.28774,-4.044794 1.33635,-6.147195 0.0555,-2.402438 -0.85047,-4.813763 -2.47429,-6.585204 -1.62382,-1.771441 -3.94741,-2.883326 -6.3456,-3.036499 z"
       id="path6213-7-3"
       inkscape:connector-curvature="0"
       inkscape:path-effect="#path-effect6215-6-5"
       inkscape:original-d="m 142.18739,86.124342 c 0,0 27.97447,10.334157 41.96131,15.501628 13.98684,5.16748 -4.27605,17.99589 -6.41447,26.99423 -2.13842,8.99833 -16.57044,-3.56386 -24.85606,-5.34539 -8.28562,-1.78154 -2.13789,-14.25464 -3.20724,-21.38157 -1.06934,-7.126918 0.89117,-4.098394 1.33635,-6.147195 0.44519,-2.048801 -8.81989,-9.621703 -8.81989,-9.621703 z"
       transform="matrix(-0.38391763,-0.97031915,-1.0090155,0.3828906,241.16245,223.16835)"
       inkscape:export-xdpi="96"
       inkscape:export-ydpi="96" />
    <path
       style="fill:#ff0000;fill-opacity:1;stroke:none;stroke-width:0.26458332px;stroke-linecap:butt;stroke-linejoin:miter;stroke-opacity:1;filter:url(#filter2030)"
       d="m 142.18739,86.124342 c 7.46273,-3.79356 16.51577,-4.321119 24.36862,-1.420065 7.85286,2.901054 14.38861,9.187528 17.59269,16.921693 1.92178,4.63888 2.66939,9.82975 1.66166,14.74879 -1.00773,4.91903 -3.85673,9.52347 -8.07613,12.24544 -3.92684,2.53323 -8.90157,3.32328 -13.45847,2.28795 -4.55691,-1.03533 -8.65707,-3.84826 -11.39759,-7.63334 -2.18451,-3.01715 -3.52011,-6.61576 -4.01253,-10.30802 -0.49242,-3.69226 -0.15582,-7.47473 0.80529,-11.07355 0.54261,-2.031755 1.28774,-4.044794 1.33635,-6.147195 0.0555,-2.402438 -0.85047,-4.813763 -2.47429,-6.585204 -1.62382,-1.771441 -3.94741,-2.883326 -6.3456,-3.036499 z"
       id="path6213"
       inkscape:connector-curvature="0"
       inkscape:path-effect="#path-effect6215"
       inkscape:original-d="m 142.18739,86.124342 c 0,0 27.97447,10.334157 41.96131,15.501628 13.98684,5.16748 -4.27605,17.99589 -6.41447,26.99423 -2.13842,8.99833 -16.57044,-3.56386 -24.85606,-5.34539 -8.28562,-1.78154 -2.13789,-14.25464 -3.20724,-21.38157 -1.06934,-7.126918 0.89117,-4.098394 1.33635,-6.147195 0.44519,-2.048801 -8.81989,-9.621703 -8.81989,-9.621703 z"
       transform="matrix(-0.60201778,0.31148487,-0.31148487,-0.60201778,260.82194,136.21964)"
       inkscape:export-xdpi="96"
       inkscape:export-ydpi="96" />
    <g
       id="g4394"
       transform="matrix(0.641264,0,0,0.641264,45.611203,49.032635)"
       inkscape:export-xdpi="96"
       inkscape:export-ydpi="96">
      <circle
         transform="matrix(0.70518036,0,0,0.70518036,26.002931,43.089978)"
         inkscape:export-ydpi="96"
         inkscape:export-xdpi="96"
         r="33.280113"
         cy="153.78532"
         cx="96.725143"
         id="path4571"
         style="fill:#ffffff;stroke:none;stroke-width:2.95838428;stroke-miterlimit:4;stroke-dasharray:none;stroke-opacity:1;filter:url(#filter35673)" />
      <circle
         inkscape:export-ydpi="96"
         inkscape:export-xdpi="96"
         r="19.665133"
         cy="151.53636"
         cx="96.8237"
         id="path4573-2"
         style="fill:#f35a00;fill-opacity:1;stroke:#f35a00;stroke-width:0;stroke-miterlimit:4;stroke-dasharray:none;stroke-opacity:1" />
      <circle
         inkscape:export-ydpi="96"
         inkscape:export-xdpi="96"
         r="11.695824"
         cy="151.16321"
         cx="99.80896"
         id="path4573"
         style="fill:#000000;fill-opacity:1;stroke:#ff9d3f;stroke-width:4.6859231;stroke-miterlimit:4;stroke-dasharray:none;stroke-opacity:1" />
      <circle
         inkscape:export-ydpi="96"
         inkscape:export-xdpi="96"
         r="4.7586794"
         cy="150.12169"
         cx="102.4114"
         id="path4577-3"
         style="fill:#ffffff;fill-opacity:1;stroke:none;stroke-width:0.35609603;stroke-miterlimit:4;stroke-dasharray:none;stroke-opacity:1" />
    </g>
    <path
       style="fill:#ff0000;fill-opacity:1;stroke:none;stroke-width:0.26458332px;stroke-linecap:butt;stroke-linejoin:miter;stroke-opacity:1;filter:url(#filter34833)"
       d="m 142.18739,86.124342 c 7.46273,-3.79356 16.51577,-4.321119 24.36862,-1.420065 7.85286,2.901054 14.38861,9.187528 17.59269,16.921693 1.92178,4.63888 2.66939,9.82975 1.66166,14.74879 -1.00773,4.91903 -3.85673,9.52347 -8.07613,12.24544 -3.92684,2.53323 -8.90157,3.32328 -13.45847,2.28795 -4.55691,-1.03533 -8.65707,-3.84826 -11.39759,-7.63334 -2.18451,-3.01715 -3.52011,-6.61576 -4.01253,-10.30802 -0.49242,-3.69226 -0.15582,-7.47473 0.80529,-11.07355 0.54261,-2.031755 1.28774,-4.044794 1.33635,-6.147195 0.0555,-2.402438 -0.85047,-4.813763 -2.47429,-6.585204 -1.62382,-1.771441 -3.94741,-2.883326 -6.3456,-3.036499 z"
       id="path6213-6"
       inkscape:connector-curvature="0"
       inkscape:path-effect="#path-effect6215-5"
       inkscape:original-d="m 142.18739,86.124342 c 0,0 27.97447,10.334157 41.96131,15.501628 13.98684,5.16748 -4.27605,17.99589 -6.41447,26.99423 -2.13842,8.99833 -16.57044,-3.56386 -24.85606,-5.34539 -8.28562,-1.78154 -2.13789,-14.25464 -3.20724,-21.38157 -1.06934,-7.126918 0.89117,-4.098394 1.33635,-6.147195 0.44519,-2.048801 -8.81989,-9.621703 -8.81989,-9.621703 z"
       transform="matrix(-0.49097441,0.15334807,0.22120359,0.44887809,184.46128,100.30823)"
       inkscape:export-xdpi="96"
       inkscape:export-ydpi="96"
       inkscape:transform-center-x="-13.184272"
       inkscape:transform-center-y="-1.5626618" />
    <path
       style="fill:#ffa000;fill-opacity:1;stroke:none;stroke-width:0.26458332px;stroke-linecap:butt;stroke-linejoin:miter;stroke-opacity:1;filter:url(#filter31836)"
       d="m 185.62409,148.64966 c 0.37208,-1.58456 1.23385,-3.05054 2.4374,-4.14632 1.3148,-1.19706 2.986,-1.92988 4.67721,-2.47892 5.17812,-1.68105 10.85421,-1.79363 16.09492,-0.31925 5.24071,1.47439 10.02549,4.52996 13.56756,8.66428 0.11751,0.24204 0.14467,0.52668 0.0751,0.78658 -0.0696,0.2599 -0.23541,0.49286 -0.45816,0.64377 -0.27842,0.18862 -0.64328,0.24356 -0.9649,0.14529 -0.32162,-0.0983 -0.59346,-0.34776 -0.7189,-0.65979 -6.48118,-4.94165 -15.00121,-7.11918 -23.05868,-5.89329 -1.30248,0.19816 -2.59935,0.48315 -3.81891,0.98154 -1.21956,0.49839 -2.36376,1.21843 -3.24368,2.19897 -0.24093,0.26849 -0.46114,0.55519 -0.70581,0.82027 -0.24467,0.26509 -0.51727,0.51069 -0.83768,0.67644 -0.3884,0.20092 -0.82862,0.27564 -1.26284,0.3274 -0.21414,0.0255 -0.43002,0.0462 -0.64522,0.0321 -0.21519,-0.0141 -0.43104,-0.0643 -0.61763,-0.17239 -0.17351,-0.10055 -0.31731,-0.24927 -0.42095,-0.42095 -0.21238,-0.35181 -0.25003,-0.8036 -0.0988,-1.18571"
       id="path31126"
       inkscape:connector-curvature="0"
       inkscape:path-effect="#path-effect31128"
       inkscape:original-d="m 185.62409,148.64966 c 0.81273,-1.38237 1.6252,-2.76448 2.4374,-4.14632 0.8122,-1.38184 3.11841,-1.65288 4.67721,-2.47892 1.55881,-0.82605 29.66248,8.34503 29.66248,8.34503 0,0 -0.25514,0.9533 -0.3831,1.43035 -0.12796,0.47704 -1.6838,-0.5145 -1.6838,-0.5145 0,0 -15.37218,-3.92912 -23.05868,-5.89329 -7.68649,-1.96417 -4.70813,2.12008 -7.06259,3.18051 -2.35447,1.06043 -1.02872,0.99754 -1.54349,1.49671 -0.51475,0.49917 -0.84163,0.218 -1.26284,0.3274 -0.42122,0.1094 -0.84164,-0.0938 -1.26285,-0.14031 -0.42122,-0.0465 -0.28037,-0.2809 -0.42095,-0.42095 -0.14058,-0.14005 -0.0656,-0.79074 -0.0988,-1.18571"
       transform="matrix(1,0,0,1.4983927,-66.167128,-55.773918)"
       inkscape:export-xdpi="96"
       inkscape:export-ydpi="96" />
    <path
       style="fill:#ffa000;fill-opacity:1;stroke:none;stroke-width:0.26458332px;stroke-linecap:butt;stroke-linejoin:miter;stroke-opacity:1;filter:url(#filter31692)"
       d="m 178.87238,139.28032 c 0.5967,-2.09992 2.20373,-3.81268 4.09718,-4.89922 1.89345,-1.08654 4.06038,-1.60561 6.22157,-1.91381 4.49018,-0.64032 9.11713,-0.41645 13.48636,0.80075 4.36923,1.2172 8.47343,3.43833 11.78135,6.54145 0.40941,0.38407 0.80656,0.78121 1.19063,1.19062 0.13607,0.37876 0.44,0.69369 0.81367,0.84316 0.37367,0.14947 0.81095,0.13102 1.1707,-0.0494 0.23073,-0.11572 0.42755,-0.29357 0.58111,-0.50106 0.15355,-0.20748 0.26495,-0.44414 0.34493,-0.68956 0.31838,-0.9769 0.11271,-2.1081 -0.52916,-2.91042 -3.49798,-4.99833 -7.98256,-9.30336 -13.11957,-12.5943 -4.33541,-2.77741 -9.13165,-4.83363 -14.13252,-6.05883 -0.91002,0.31836 -1.73737,0.86993 -2.38125,1.5875 -1.10996,1.23699 -1.62621,2.87673 -2.25642,4.41458 -1.11611,2.72355 -2.68145,5.27295 -4.68889,7.42553 -1.05727,1.13372 -2.23452,2.15548 -3.50573,3.04271 -0.57629,1.07502 -0.89626,2.28635 -0.92604,3.50573 -0.004,0.16056 -0.003,0.32285 0.0334,0.47935 0.0361,0.1565 0.10988,0.30839 0.23122,0.41361 0.0967,0.0838 0.21928,0.13429 0.3451,0.15766 0.12582,0.0234 0.25521,0.0208 0.38251,0.008 0.11572,-0.0119 0.23129,-0.0327 0.34007,-0.0739 0.10879,-0.0412 0.21094,-0.10378 0.28831,-0.19066 0.12924,-0.14512 0.17839,-0.34224 0.23151,-0.52917 z"
       id="path31118"
       inkscape:connector-curvature="0"
       inkscape:path-effect="#path-effect31120"
       inkscape:original-d="m 178.87238,139.28032 c 0.0769,-0.17612 7.4086,-4.56433 10.31875,-6.81303 2.91015,-2.24869 16.31624,4.91659 25.26771,7.3422 8.95147,2.42561 1.19063,1.19062 1.19063,1.19062 0,0 1.32318,0.5289 1.98437,0.79375 0.66119,0.26485 0.61763,-0.79401 0.92604,-1.19062 0.30842,-0.39662 -0.52916,-2.91042 -0.52916,-2.91042 0,0 -8.62139,-7.52339 -13.11957,-12.5943 -4.49819,-5.07092 -14.13252,-6.05883 -14.13252,-6.05883 0,0 -1.58723,1.05807 -2.38125,1.5875 -0.79401,0.52943 -2.25615,3.79695 -2.25642,4.41458 -2.6e-4,0.61762 -1.42195,4.81186 -4.68889,7.42553 -1.32318,1.05859 -3.50573,3.04271 -3.50573,3.04271 0,0 -0.573,2.44713 -0.92604,3.50573 -0.35304,1.05859 0.17665,0.59504 0.26458,0.89296 0.0879,0.29792 0.48534,0.10998 0.72761,0.16537 0.24227,0.0554 0.41918,-0.17665 0.62838,-0.26458 0.2092,-0.0879 0.15461,-0.35305 0.23151,-0.52917 z"
       transform="matrix(1,0,0,1.4983927,-59.944592,-40.942079)"
       sodipodi:nodetypes="scscsccscccscccccs"
       inkscape:export-xdpi="96"
       inkscape:export-ydpi="96" />
    <path
       style="fill:#ff0000;fill-opacity:1;stroke:none;stroke-width:0.26458332px;stroke-linecap:butt;stroke-linejoin:miter;stroke-opacity:1;filter:url(#filter35181)"
       d="m 142.18739,86.124342 c 7.46273,-3.79356 16.51577,-4.321119 24.36862,-1.420065 7.85286,2.901054 14.38861,9.187528 17.59269,16.921693 1.92178,4.63888 2.66939,9.82975 1.66166,14.74879 -1.00773,4.91903 -3.85673,9.52347 -8.07613,12.24544 -3.92684,2.53323 -8.90157,3.32328 -13.45847,2.28795 -4.55691,-1.03533 -8.65707,-3.84826 -11.39759,-7.63334 -2.18451,-3.01715 -3.52011,-6.61576 -4.01253,-10.30802 -0.49242,-3.69226 -0.15582,-7.47473 0.80529,-11.07355 0.54261,-2.031755 1.28774,-4.044794 1.33635,-6.147195 0.0555,-2.402438 -0.85047,-4.813763 -2.47429,-6.585204 -1.62382,-1.771441 -3.94741,-2.883326 -6.3456,-3.036499 z"
       id="path6213-7"
       inkscape:connector-curvature="0"
       inkscape:path-effect="#path-effect6215-6"
       inkscape:original-d="m 142.18739,86.124342 c 0,0 27.97447,10.334157 41.96131,15.501628 13.98684,5.16748 -4.27605,17.99589 -6.41447,26.99423 -2.13842,8.99833 -16.57044,-3.56386 -24.85606,-5.34539 -8.28562,-1.78154 -2.13789,-14.25464 -3.20724,-21.38157 -1.06934,-7.126918 0.89117,-4.098394 1.33635,-6.147195 0.44519,-2.048801 -8.81989,-9.621703 -8.81989,-9.621703 z"
       transform="matrix(-0.64976848,-0.39973534,-0.45451749,0.57145308,272.88396,111.45376)"
       inkscape:export-xdpi="96"
       inkscape:export-ydpi="96" />
    <path
       style="fill:#ff0000;fill-opacity:1;stroke:none;stroke-width:0.26458332px;stroke-linecap:butt;stroke-linejoin:miter;stroke-opacity:1;filter:url(#filter35181-3)"
       d="m 142.18739,86.124342 c 7.46273,-3.79356 16.51577,-4.321119 24.36862,-1.420065 7.85286,2.901054 14.38861,9.187528 17.59269,16.921693 1.92178,4.63888 2.66939,9.82975 1.66166,14.74879 -1.00773,4.91903 -3.85673,9.52347 -8.07613,12.24544 -3.92684,2.53323 -8.90157,3.32328 -13.45847,2.28795 -4.55691,-1.03533 -8.65707,-3.84826 -11.39759,-7.63334 -2.18451,-3.01715 -3.52011,-6.61576 -4.01253,-10.30802 -0.49242,-3.69226 -0.15582,-7.47473 0.80529,-11.07355 0.54261,-2.031755 1.28774,-4.044794 1.33635,-6.147195 0.0555,-2.402438 -0.85047,-4.813763 -2.47429,-6.585204 -1.62382,-1.771441 -3.94741,-2.883326 -6.3456,-3.036499 z"
       id="path6213-7-9"
       inkscape:connector-curvature="0"
       inkscape:path-effect="#path-effect6215-6-0"
       inkscape:original-d="m 142.18739,86.124342 c 0,0 27.97447,10.334157 41.96131,15.501628 13.98684,5.16748 -4.27605,17.99589 -6.41447,26.99423 -2.13842,8.99833 -16.57044,-3.56386 -24.85606,-5.34539 -8.28562,-1.78154 -2.13789,-14.25464 -3.20724,-21.38157 -1.06934,-7.126918 0.89117,-4.098394 1.33635,-6.147195 0.44519,-2.048801 -8.81989,-9.621703 -8.81989,-9.621703 z"
       transform="matrix(-0.73113314,0.21778833,0.1228945,0.71975116,206.40436,-13.655764)"
       inkscape:export-xdpi="96"
       inkscape:export-ydpi="96" />
  </g>
</svg>
